{
  "data": {
    "computers": [
      {
        "name": "drews-dev-03.example.com"
      },
      {
        "name": "drews-dev-01.example.com"
      },
      {
        "name": "drews-dev-sdk-02.example.com"
      },
      {
        "name": "drews-dev-rhel9-01.example.com"
      },
      {
        "name": "drews-al9-dev-10.example.com"
      },
      {
        "name": "drews-jammy-dev-01.example.com"
      },
      {
        "name": "drews-ubu20-dev-01.example.com"
      },
      {
        "name": "drews-ubu22-dev-01.example.com"
      }
    ]
  }
}
